{
    "watch": [
        "package.json",
        "nodemon.json",
        ".eslintrc.json",
        ".env",
        ".babelrc",
        ".prettierrc",
        "src/"
    ],
    "verbose": true,
    "ignore": [
        "*.test.js",
        "*.spec.js"
    ]
}